RNA-seq analysis in R
…
# load the RData object we created in the previous session
load("Robjects/preprocessing.RData")
ls()

## [1] "countdata"  "sampleinfo"

dim(countdata)

## [1] 25369    12

sampleinfo

## # A tibble: 12 x 5
##   FileName    Sample  CellType Status   Group         
##   <chr>       <chr>   <chr>    <chr>    <chr>         
## 1 MCL1.DG.bam MCL1.DG basal    virgin   basal.virgin  
## 2 MCL1.DH.bam MCL1.DH basal    virgin   basal.virgin  
## 3 MCL1.DI.bam MCL1.DI basal    pregnant basal.pregnant
## 4 MCL1.DJ.bam MCL1.DJ basal    pregnant basal.pregnant
## #  with 8 more rows
…
