RNA-seq Analysis in R
…
length(unique(annot$ENTREZID)) # Why are there NAs in the ENTREZID column?

## [1] 533

dim(annot) # why are there more than 1000 rows?

## [1] 1010    3

# find all rows containing duplicated ensembl ids
annot %>%  
    add_count(GENEID) %>%  
    dplyr::filter(n>1)

## # A tibble: 30 x 4
##    SYMBOL GENEID              ENTREZID     n
##    <chr>  <chr>                  <int> <int>
##  1 Tceb1  ENSMUSG00000079658     67923     2
##  2 Tceb1  ENSMUSG00000079658 102642819     2
##  3 Ptp4a1 ENSMUSG00000026064     19243     2
##  4 Ptp4a1 ENSMUSG00000026064 102643131     2
##  5 Cox5b  ENSMUSG00000061518     12859     3
##  6 Cox5b  ENSMUSG00000061518 102638382     3
##  7 Cox5b  ENSMUSG00000061518 102641600     3
##  8 Rpl31  ENSMUSG00000073702    665562     2
##  9 Rpl31  ENSMUSG00000073702 102641215     2
## 10 Hspd1  ENSMUSG00000025980     15510     2
## #  with 20 more rows
…
